/*
WARNING: Do NOT edit the input and output ports in this file in a text
editor if you plan to continue editing the block that represents it in
the Block Editor! File corruption is VERY likely to occur.
*/
/*
Copyright (C) 2018  Intel Corporation. All rights reserved.
Your use of Intel Corporation's design tools, logic functions 
and other software and tools, and its AMPP partner logic 
functions, and any output files from any of the foregoing 
(including device programming or simulation files), and any 
associated documentation or information are expressly subject 
to the terms and conditions of the Intel Program License 
Subscription Agreement, the Intel Quartus Prime License Agreement,
the Intel FPGA IP License Agreement, or other applicable license
agreement, including, without limitation, that your use is for
the sole purpose of programming logic devices manufactured by
Intel and sold by Intel or its authorized distributors.  Please
refer to the applicable agreement for further details.
*/
(header "graphic" (version "1.4"))
(pin
	(input)
	(rect -64 208 112 224)
	(text "INPUT" (rect 133 0 161 10)(font "Arial" (font_size 6)))
	(text "A[3..0]" (rect 9 0 42 12)(font "Arial" ))
	(pt 176 8)
	(drawing
		(line (pt 92 12)(pt 117 12))
		(line (pt 92 4)(pt 117 4))
		(line (pt 121 8)(pt 176 8))
		(line (pt 92 12)(pt 92 4))
		(line (pt 117 4)(pt 121 8))
		(line (pt 117 12)(pt 121 8))
	)
	(text "VCC" (rect 136 7 156 17)(font "Arial" (font_size 6)))
)
(pin
	(input)
	(rect -64 248 112 264)
	(text "INPUT" (rect 133 0 161 10)(font "Arial" (font_size 6)))
	(text "B[3..0]" (rect 9 0 42 12)(font "Arial" ))
	(pt 176 8)
	(drawing
		(line (pt 92 12)(pt 117 12))
		(line (pt 92 4)(pt 117 4))
		(line (pt 121 8)(pt 176 8))
		(line (pt 92 12)(pt 92 4))
		(line (pt 117 4)(pt 121 8))
		(line (pt 117 12)(pt 121 8))
	)
	(text "VCC" (rect 136 7 156 17)(font "Arial" (font_size 6)))
)
(pin
	(input)
	(rect -56 128 112 144)
	(text "INPUT" (rect 125 0 153 10)(font "Arial" (font_size 6)))
	(text "C_in" (rect 5 0 28 12)(font "Arial" ))
	(pt 168 8)
	(drawing
		(line (pt 84 12)(pt 109 12))
		(line (pt 84 4)(pt 109 4))
		(line (pt 113 8)(pt 168 8))
		(line (pt 84 12)(pt 84 4))
		(line (pt 109 4)(pt 113 8))
		(line (pt 109 12)(pt 113 8))
	)
	(text "VCC" (rect 128 7 148 17)(font "Arial" (font_size 6)))
)
(pin
	(output)
	(rect 656 432 832 448)
	(text "OUTPUT" (rect 1 0 39 10)(font "Arial" (font_size 6)))
	(text "Z[3..0]" (rect 90 0 123 12)(font "Arial" ))
	(pt 0 8)
	(drawing
		(line (pt 0 8)(pt 52 8))
		(line (pt 52 4)(pt 78 4))
		(line (pt 52 12)(pt 78 12))
		(line (pt 52 12)(pt 52 4))
		(line (pt 78 4)(pt 82 8))
		(line (pt 82 8)(pt 78 12))
		(line (pt 78 12)(pt 82 8))
	)
)
(pin
	(output)
	(rect 616 568 792 584)
	(text "OUTPUT" (rect 1 0 39 10)(font "Arial" (font_size 6)))
	(text "C_out" (rect 90 0 119 12)(font "Arial" ))
	(pt 0 8)
	(drawing
		(line (pt 0 8)(pt 52 8))
		(line (pt 52 4)(pt 78 4))
		(line (pt 52 12)(pt 78 12))
		(line (pt 52 12)(pt 52 4))
		(line (pt 78 4)(pt 82 8))
		(line (pt 82 8)(pt 78 12))
		(line (pt 78 12)(pt 82 8))
	)
)
(symbol
	(rect 336 64 448 160)
	(text "lab2_ece112" (rect 5 0 84 19)(font "Intel Clear" (font_size 8)))
	(text "inst" (rect 8 75 24 92)(font "Intel Clear" ))
	(port
		(pt 0 32)
		(input)
		(text "A" (rect 0 0 8 19)(font "Intel Clear" (font_size 8)))
		(text "A" (rect 21 27 29 46)(font "Intel Clear" (font_size 8)))
		(line (pt 0 32)(pt 16 32))
	)
	(port
		(pt 0 48)
		(input)
		(text "B" (rect 0 0 8 19)(font "Intel Clear" (font_size 8)))
		(text "B" (rect 21 43 29 62)(font "Intel Clear" (font_size 8)))
		(line (pt 0 48)(pt 16 48))
	)
	(port
		(pt 0 64)
		(input)
		(text "C_in" (rect 0 0 25 19)(font "Intel Clear" (font_size 8)))
		(text "C_in" (rect 21 59 46 78)(font "Intel Clear" (font_size 8)))
		(line (pt 0 64)(pt 16 64))
	)
	(port
		(pt 112 32)
		(output)
		(text "S" (rect 0 0 8 19)(font "Intel Clear" (font_size 8)))
		(text "S" (rect 83 27 91 46)(font "Intel Clear" (font_size 8)))
		(line (pt 112 32)(pt 96 32))
	)
	(port
		(pt 112 48)
		(output)
		(text "C_out" (rect 0 0 34 19)(font "Intel Clear" (font_size 8)))
		(text "C_out" (rect 57 43 91 62)(font "Intel Clear" (font_size 8)))
		(line (pt 112 48)(pt 96 48))
	)
	(drawing
		(rectangle (rect 16 16 96 80))
	)
)
(symbol
	(rect 336 192 448 288)
	(text "lab2_ece112" (rect 5 0 84 19)(font "Intel Clear" (font_size 8)))
	(text "inst1" (rect 8 75 30 92)(font "Intel Clear" ))
	(port
		(pt 0 32)
		(input)
		(text "A" (rect 0 0 8 19)(font "Intel Clear" (font_size 8)))
		(text "A" (rect 21 27 29 46)(font "Intel Clear" (font_size 8)))
		(line (pt 0 32)(pt 16 32))
	)
	(port
		(pt 0 48)
		(input)
		(text "B" (rect 0 0 8 19)(font "Intel Clear" (font_size 8)))
		(text "B" (rect 21 43 29 62)(font "Intel Clear" (font_size 8)))
		(line (pt 0 48)(pt 16 48))
	)
	(port
		(pt 0 64)
		(input)
		(text "C_in" (rect 0 0 25 19)(font "Intel Clear" (font_size 8)))
		(text "C_in" (rect 21 59 46 78)(font "Intel Clear" (font_size 8)))
		(line (pt 0 64)(pt 16 64))
	)
	(port
		(pt 112 32)
		(output)
		(text "S" (rect 0 0 8 19)(font "Intel Clear" (font_size 8)))
		(text "S" (rect 83 27 91 46)(font "Intel Clear" (font_size 8)))
		(line (pt 112 32)(pt 96 32))
	)
	(port
		(pt 112 48)
		(output)
		(text "C_out" (rect 0 0 34 19)(font "Intel Clear" (font_size 8)))
		(text "C_out" (rect 57 43 91 62)(font "Intel Clear" (font_size 8)))
		(line (pt 112 48)(pt 96 48))
	)
	(drawing
		(rectangle (rect 16 16 96 80))
	)
)
(symbol
	(rect 336 328 448 424)
	(text "lab2_ece112" (rect 5 0 84 19)(font "Intel Clear" (font_size 8)))
	(text "inst2" (rect 8 75 30 92)(font "Intel Clear" ))
	(port
		(pt 0 32)
		(input)
		(text "A" (rect 0 0 8 19)(font "Intel Clear" (font_size 8)))
		(text "A" (rect 21 27 29 46)(font "Intel Clear" (font_size 8)))
		(line (pt 0 32)(pt 16 32))
	)
	(port
		(pt 0 48)
		(input)
		(text "B" (rect 0 0 8 19)(font "Intel Clear" (font_size 8)))
		(text "B" (rect 21 43 29 62)(font "Intel Clear" (font_size 8)))
		(line (pt 0 48)(pt 16 48))
	)
	(port
		(pt 0 64)
		(input)
		(text "C_in" (rect 0 0 25 19)(font "Intel Clear" (font_size 8)))
		(text "C_in" (rect 21 59 46 78)(font "Intel Clear" (font_size 8)))
		(line (pt 0 64)(pt 16 64))
	)
	(port
		(pt 112 32)
		(output)
		(text "S" (rect 0 0 8 19)(font "Intel Clear" (font_size 8)))
		(text "S" (rect 83 27 91 46)(font "Intel Clear" (font_size 8)))
		(line (pt 112 32)(pt 96 32))
	)
	(port
		(pt 112 48)
		(output)
		(text "C_out" (rect 0 0 34 19)(font "Intel Clear" (font_size 8)))
		(text "C_out" (rect 57 43 91 62)(font "Intel Clear" (font_size 8)))
		(line (pt 112 48)(pt 96 48))
	)
	(drawing
		(rectangle (rect 16 16 96 80))
	)
)
(symbol
	(rect 344 456 456 552)
	(text "lab2_ece112" (rect 5 0 84 19)(font "Intel Clear" (font_size 8)))
	(text "inst3" (rect 8 75 30 92)(font "Intel Clear" ))
	(port
		(pt 0 32)
		(input)
		(text "A" (rect 0 0 8 19)(font "Intel Clear" (font_size 8)))
		(text "A" (rect 21 27 29 46)(font "Intel Clear" (font_size 8)))
		(line (pt 0 32)(pt 16 32))
	)
	(port
		(pt 0 48)
		(input)
		(text "B" (rect 0 0 8 19)(font "Intel Clear" (font_size 8)))
		(text "B" (rect 21 43 29 62)(font "Intel Clear" (font_size 8)))
		(line (pt 0 48)(pt 16 48))
	)
	(port
		(pt 0 64)
		(input)
		(text "C_in" (rect 0 0 25 19)(font "Intel Clear" (font_size 8)))
		(text "C_in" (rect 21 59 46 78)(font "Intel Clear" (font_size 8)))
		(line (pt 0 64)(pt 16 64))
	)
	(port
		(pt 112 32)
		(output)
		(text "S" (rect 0 0 8 19)(font "Intel Clear" (font_size 8)))
		(text "S" (rect 83 27 91 46)(font "Intel Clear" (font_size 8)))
		(line (pt 112 32)(pt 96 32))
	)
	(port
		(pt 112 48)
		(output)
		(text "C_out" (rect 0 0 34 19)(font "Intel Clear" (font_size 8)))
		(text "C_out" (rect 57 43 91 62)(font "Intel Clear" (font_size 8)))
		(line (pt 112 48)(pt 96 48))
	)
	(drawing
		(rectangle (rect 16 16 96 80))
	)
)
(connector
	(pt 272 488)
	(pt 272 480)
	(bus)
)
(connector
	(pt 448 112)
	(pt 448 184)
)
(connector
	(pt 448 184)
	(pt 224 184)
)
(connector
	(pt 224 184)
	(pt 224 264)
)
(connector
	(pt 336 264)
	(pt 336 256)
)
(connector
	(pt 224 264)
	(pt 336 264)
)
(connector
	(pt 448 240)
	(pt 456 240)
)
(connector
	(pt 456 240)
	(pt 456 312)
)
(connector
	(pt 456 312)
	(pt 240 312)
)
(connector
	(pt 240 312)
	(pt 240 408)
)
(connector
	(pt 240 408)
	(pt 336 408)
)
(connector
	(pt 336 408)
	(pt 336 392)
)
(connector
	(pt 448 376)
	(pt 448 440)
)
(connector
	(pt 448 440)
	(pt 240 440)
)
(connector
	(pt 240 440)
	(pt 240 520)
)
(connector
	(pt 240 520)
	(pt 344 520)
)
(connector
	(pt 336 128)
	(pt 112 128)
)
(connector
	(pt 112 128)
	(pt 112 136)
)
(connector
	(pt 456 504)
	(pt 616 504)
)
(connector
	(pt 616 504)
	(pt 616 576)
)
(connector
	(pt 656 440)
	(pt 632 440)
	(bus)
)
(connector
	(text "A[0]" (rect 258 80 278 97)(font "Intel Clear" ))
	(pt 336 96)
	(pt 248 96)
	(bus)
)
(connector
	(text "B[0]" (rect 274 96 294 113)(font "Intel Clear" ))
	(pt 336 112)
	(pt 264 112)
	(bus)
)
(connector
	(text "Z[0]" (rect 458 80 476 97)(font "Intel Clear" ))
	(pt 448 96)
	(pt 496 96)
	(bus)
)
(connector
	(text "A[1]" (rect 306 208 326 225)(font "Intel Clear" ))
	(pt 336 224)
	(pt 296 224)
	(bus)
)
(connector
	(text "Z[1]" (rect 458 208 476 225)(font "Intel Clear" ))
	(pt 448 224)
	(pt 504 224)
	(bus)
)
(connector
	(text "B[1]" (rect 290 224 310 241)(font "Intel Clear" ))
	(pt 336 240)
	(pt 280 240)
	(bus)
)
(connector
	(text "A[2]" (rect 282 344 302 361)(font "Intel Clear" ))
	(pt 336 360)
	(pt 272 360)
	(bus)
)
(connector
	(text "Z[2]" (rect 458 344 476 361)(font "Intel Clear" ))
	(pt 448 360)
	(pt 504 360)
	(bus)
)
(connector
	(text "B[2]" (rect 282 360 302 377)(font "Intel Clear" ))
	(pt 336 376)
	(pt 272 376)
	(bus)
)
(connector
	(text "A[3]" (rect 282 472 302 489)(font "Intel Clear" ))
	(pt 272 488)
	(pt 344 488)
	(bus)
)
(connector
	(text "Z[3]" (rect 466 472 484 489)(font "Intel Clear" ))
	(pt 456 488)
	(pt 504 488)
	(bus)
)
(connector
	(text "B[3]" (rect 282 488 302 505)(font "Intel Clear" ))
	(pt 344 504)
	(pt 272 504)
	(bus)
)
(connector
	(pt 112 216)
	(pt 136 216)
	(bus)
)
(connector
	(pt 112 256)
	(pt 136 256)
	(bus)
)
