/*
WARNING: Do NOT edit the input and output ports in this file in a text
editor if you plan to continue editing the block that represents it in
the Block Editor! File corruption is VERY likely to occur.
*/
/*
Copyright (C) 2018  Intel Corporation. All rights reserved.
Your use of Intel Corporation's design tools, logic functions 
and other software and tools, and its AMPP partner logic 
functions, and any output files from any of the foregoing 
(including device programming or simulation files), and any 
associated documentation or information are expressly subject 
to the terms and conditions of the Intel Program License 
Subscription Agreement, the Intel Quartus Prime License Agreement,
the Intel FPGA IP License Agreement, or other applicable license
agreement, including, without limitation, that your use is for
the sole purpose of programming logic devices manufactured by
Intel and sold by Intel or its authorized distributors.  Please
refer to the applicable agreement for further details.
*/
(header "graphic" (version "1.4"))
(pin
	(input)
	(rect -656 312 -488 328)
	(text "INPUT" (rect 125 0 153 10)(font "Arial" (font_size 6)))
	(text "CLK" (rect 5 0 25 17)(font "Intel Clear" ))
	(pt 168 8)
	(drawing
		(line (pt 84 12)(pt 109 12))
		(line (pt 84 4)(pt 109 4))
		(line (pt 113 8)(pt 168 8))
		(line (pt 84 12)(pt 84 4))
		(line (pt 109 4)(pt 113 8))
		(line (pt 109 12)(pt 113 8))
	)
	(text "VCC" (rect 128 7 148 17)(font "Arial" (font_size 6)))
	(annotation_block (location)(rect -712 328 -656 352))
)
(pin
	(input)
	(rect -744 464 -576 480)
	(text "INPUT" (rect 125 0 153 10)(font "Arial" (font_size 6)))
	(text "Reset" (rect 5 0 34 12)(font "Arial" ))
	(pt 168 8)
	(drawing
		(line (pt 84 12)(pt 109 12))
		(line (pt 84 4)(pt 109 4))
		(line (pt 113 8)(pt 168 8))
		(line (pt 84 12)(pt 84 4))
		(line (pt 109 4)(pt 113 8))
		(line (pt 109 12)(pt 113 8))
	)
	(text "VCC" (rect 128 7 148 17)(font "Arial" (font_size 6)))
	(annotation_block (location)(rect -800 480 -744 504))
)
(pin
	(output)
	(rect 1016 216 1192 232)
	(text "OUTPUT" (rect 1 0 39 10)(font "Arial" (font_size 6)))
	(text "Seg5[6..0]" (rect 90 0 137 17)(font "Intel Clear" ))
	(pt 0 8)
	(drawing
		(line (pt 0 8)(pt 52 8))
		(line (pt 52 4)(pt 78 4))
		(line (pt 52 12)(pt 78 12))
		(line (pt 52 12)(pt 52 4))
		(line (pt 78 4)(pt 82 8))
		(line (pt 82 8)(pt 78 12))
		(line (pt 78 12)(pt 82 8))
	)
	(annotation_block (location)(rect 1192 232 1256 256))
)
(pin
	(output)
	(rect 1016 136 1192 152)
	(text "OUTPUT" (rect 1 0 39 10)(font "Arial" (font_size 6)))
	(text "Seg4[6..0]" (rect 90 0 137 17)(font "Intel Clear" ))
	(pt 0 8)
	(drawing
		(line (pt 0 8)(pt 52 8))
		(line (pt 52 4)(pt 78 4))
		(line (pt 52 12)(pt 78 12))
		(line (pt 52 12)(pt 52 4))
		(line (pt 78 4)(pt 82 8))
		(line (pt 82 8)(pt 78 12))
		(line (pt 78 12)(pt 82 8))
	)
	(annotation_block (location)(rect 1192 152 1256 176))
)
(pin
	(output)
	(rect 1008 32 1184 48)
	(text "OUTPUT" (rect 1 0 39 10)(font "Arial" (font_size 6)))
	(text "Seg3[6..0]" (rect 90 0 137 17)(font "Intel Clear" ))
	(pt 0 8)
	(drawing
		(line (pt 0 8)(pt 52 8))
		(line (pt 52 4)(pt 78 4))
		(line (pt 52 12)(pt 78 12))
		(line (pt 52 12)(pt 52 4))
		(line (pt 78 4)(pt 82 8))
		(line (pt 82 8)(pt 78 12))
		(line (pt 78 12)(pt 82 8))
	)
	(annotation_block (location)(rect 1184 48 1248 72))
)
(pin
	(output)
	(rect 1008 -48 1184 -32)
	(text "OUTPUT" (rect 1 0 39 10)(font "Arial" (font_size 6)))
	(text "Seg2[6..0]" (rect 90 0 137 17)(font "Intel Clear" ))
	(pt 0 8)
	(drawing
		(line (pt 0 8)(pt 52 8))
		(line (pt 52 4)(pt 78 4))
		(line (pt 52 12)(pt 78 12))
		(line (pt 52 12)(pt 52 4))
		(line (pt 78 4)(pt 82 8))
		(line (pt 82 8)(pt 78 12))
		(line (pt 78 12)(pt 82 8))
	)
	(annotation_block (location)(rect 1184 -32 1248 -8))
)
(pin
	(output)
	(rect 1008 -152 1184 -136)
	(text "OUTPUT" (rect 1 0 39 10)(font "Arial" (font_size 6)))
	(text "Seg1[6..0]" (rect 90 0 137 17)(font "Intel Clear" ))
	(pt 0 8)
	(drawing
		(line (pt 0 8)(pt 52 8))
		(line (pt 52 4)(pt 78 4))
		(line (pt 52 12)(pt 78 12))
		(line (pt 52 12)(pt 52 4))
		(line (pt 78 4)(pt 82 8))
		(line (pt 82 8)(pt 78 12))
		(line (pt 78 12)(pt 82 8))
	)
	(annotation_block (location)(rect 1184 -136 1248 -112))
)
(pin
	(output)
	(rect 1000 -232 1176 -216)
	(text "OUTPUT" (rect 1 0 39 10)(font "Arial" (font_size 6)))
	(text "Seg0[6..0]" (rect 90 0 137 17)(font "Intel Clear" ))
	(pt 0 8)
	(drawing
		(line (pt 0 8)(pt 52 8))
		(line (pt 52 4)(pt 78 4))
		(line (pt 52 12)(pt 78 12))
		(line (pt 52 12)(pt 52 4))
		(line (pt 78 4)(pt 82 8))
		(line (pt 82 8)(pt 78 12))
		(line (pt 78 12)(pt 82 8))
	)
	(annotation_block (location)(rect 1176 -216 1240 -192))
)
(symbol
	(rect 808 480 928 560)
	(text "sync" (rect 5 0 29 12)(font "Arial" ))
	(text "inst" (rect 8 64 25 76)(font "Arial" ))
	(port
		(pt 0 32)
		(input)
		(text "clk" (rect 0 0 14 12)(font "Arial" ))
		(text "clk" (rect 21 27 35 39)(font "Arial" ))
		(line (pt 0 32)(pt 16 32))
	)
	(port
		(pt 0 48)
		(input)
		(text "d" (rect 0 0 5 12)(font "Arial" ))
		(text "d" (rect 21 43 26 55)(font "Arial" ))
		(line (pt 0 48)(pt 16 48))
	)
	(port
		(pt 120 32)
		(output)
		(text "q" (rect 0 0 5 12)(font "Arial" ))
		(text "q" (rect 95 27 100 39)(font "Arial" ))
		(line (pt 120 32)(pt 104 32))
	)
	(drawing
		(rectangle (rect 16 16 104 64))
	)
)
(symbol
	(rect 720 -256 920 -176)
	(text "sevenseg" (rect 5 0 53 12)(font "Arial" ))
	(text "inst2" (rect 8 64 30 81)(font "Intel Clear" ))
	(port
		(pt 0 32)
		(input)
		(text "data[3..0]" (rect 0 0 47 12)(font "Arial" ))
		(text "data[3..0]" (rect 21 27 68 39)(font "Arial" ))
		(line (pt 0 32)(pt 16 32)(line_width 3))
	)
	(port
		(pt 200 32)
		(output)
		(text "segments[6..0]" (rect 0 0 74 12)(font "Arial" ))
		(text "segments[6..0]" (rect 117 27 191 39)(font "Arial" ))
		(line (pt 200 32)(pt 184 32)(line_width 3))
	)
	(drawing
		(rectangle (rect 16 16 184 64))
	)
)
(symbol
	(rect 720 -176 920 -96)
	(text "sevenseg" (rect 5 0 53 12)(font "Arial" ))
	(text "inst3" (rect 8 64 30 81)(font "Intel Clear" ))
	(port
		(pt 0 32)
		(input)
		(text "data[3..0]" (rect 0 0 47 12)(font "Arial" ))
		(text "data[3..0]" (rect 21 27 68 39)(font "Arial" ))
		(line (pt 0 32)(pt 16 32)(line_width 3))
	)
	(port
		(pt 200 32)
		(output)
		(text "segments[6..0]" (rect 0 0 74 12)(font "Arial" ))
		(text "segments[6..0]" (rect 117 27 191 39)(font "Arial" ))
		(line (pt 200 32)(pt 184 32)(line_width 3))
	)
	(drawing
		(rectangle (rect 16 16 184 64))
	)
)
(symbol
	(rect 720 -72 920 8)
	(text "sevenseg" (rect 5 0 53 12)(font "Arial" ))
	(text "inst4" (rect 8 64 30 81)(font "Intel Clear" ))
	(port
		(pt 0 32)
		(input)
		(text "data[3..0]" (rect 0 0 47 12)(font "Arial" ))
		(text "data[3..0]" (rect 21 27 68 39)(font "Arial" ))
		(line (pt 0 32)(pt 16 32)(line_width 3))
	)
	(port
		(pt 200 32)
		(output)
		(text "segments[6..0]" (rect 0 0 74 12)(font "Arial" ))
		(text "segments[6..0]" (rect 117 27 191 39)(font "Arial" ))
		(line (pt 200 32)(pt 184 32)(line_width 3))
	)
	(drawing
		(rectangle (rect 16 16 184 64))
	)
)
(symbol
	(rect 720 16 920 96)
	(text "sevenseg" (rect 5 0 53 12)(font "Arial" ))
	(text "inst5" (rect 8 64 30 81)(font "Intel Clear" ))
	(port
		(pt 0 32)
		(input)
		(text "data[3..0]" (rect 0 0 47 12)(font "Arial" ))
		(text "data[3..0]" (rect 21 27 68 39)(font "Arial" ))
		(line (pt 0 32)(pt 16 32)(line_width 3))
	)
	(port
		(pt 200 32)
		(output)
		(text "segments[6..0]" (rect 0 0 74 12)(font "Arial" ))
		(text "segments[6..0]" (rect 117 27 191 39)(font "Arial" ))
		(line (pt 200 32)(pt 184 32)(line_width 3))
	)
	(drawing
		(rectangle (rect 16 16 184 64))
	)
)
(symbol
	(rect 720 112 920 192)
	(text "sevenseg" (rect 5 0 53 12)(font "Arial" ))
	(text "inst6" (rect 8 64 30 81)(font "Intel Clear" ))
	(port
		(pt 0 32)
		(input)
		(text "data[3..0]" (rect 0 0 47 12)(font "Arial" ))
		(text "data[3..0]" (rect 21 27 68 39)(font "Arial" ))
		(line (pt 0 32)(pt 16 32)(line_width 3))
	)
	(port
		(pt 200 32)
		(output)
		(text "segments[6..0]" (rect 0 0 74 12)(font "Arial" ))
		(text "segments[6..0]" (rect 117 27 191 39)(font "Arial" ))
		(line (pt 200 32)(pt 184 32)(line_width 3))
	)
	(drawing
		(rectangle (rect 16 16 184 64))
	)
)
(symbol
	(rect 720 192 920 272)
	(text "sevenseg" (rect 5 0 53 12)(font "Arial" ))
	(text "inst7" (rect 8 64 30 81)(font "Intel Clear" ))
	(port
		(pt 0 32)
		(input)
		(text "data[3..0]" (rect 0 0 47 12)(font "Arial" ))
		(text "data[3..0]" (rect 21 27 68 39)(font "Arial" ))
		(line (pt 0 32)(pt 16 32)(line_width 3))
	)
	(port
		(pt 200 32)
		(output)
		(text "segments[6..0]" (rect 0 0 74 12)(font "Arial" ))
		(text "segments[6..0]" (rect 117 27 191 39)(font "Arial" ))
		(line (pt 200 32)(pt 184 32)(line_width 3))
	)
	(drawing
		(rectangle (rect 16 16 184 64))
	)
)
(symbol
	(rect 808 592 928 672)
	(text "sync" (rect 5 0 29 12)(font "Arial" ))
	(text "inst8" (rect 8 64 30 81)(font "Intel Clear" ))
	(port
		(pt 0 32)
		(input)
		(text "clk" (rect 0 0 14 12)(font "Arial" ))
		(text "clk" (rect 21 27 35 39)(font "Arial" ))
		(line (pt 0 32)(pt 16 32))
	)
	(port
		(pt 0 48)
		(input)
		(text "d" (rect 0 0 5 12)(font "Arial" ))
		(text "d" (rect 21 43 26 55)(font "Arial" ))
		(line (pt 0 48)(pt 16 48))
	)
	(port
		(pt 120 32)
		(output)
		(text "q" (rect 0 0 5 12)(font "Arial" ))
		(text "q" (rect 95 27 100 39)(font "Arial" ))
		(line (pt 120 32)(pt 104 32))
	)
	(drawing
		(rectangle (rect 16 16 104 64))
	)
)
(symbol
	(rect 808 688 928 768)
	(text "sync" (rect 5 0 29 12)(font "Arial" ))
	(text "inst9" (rect 8 64 30 81)(font "Intel Clear" ))
	(port
		(pt 0 32)
		(input)
		(text "clk" (rect 0 0 14 12)(font "Arial" ))
		(text "clk" (rect 21 27 35 39)(font "Arial" ))
		(line (pt 0 32)(pt 16 32))
	)
	(port
		(pt 0 48)
		(input)
		(text "d" (rect 0 0 5 12)(font "Arial" ))
		(text "d" (rect 21 43 26 55)(font "Arial" ))
		(line (pt 0 48)(pt 16 48))
	)
	(port
		(pt 120 32)
		(output)
		(text "q" (rect 0 0 5 12)(font "Arial" ))
		(text "q" (rect 95 27 100 39)(font "Arial" ))
		(line (pt 120 32)(pt 104 32))
	)
	(drawing
		(rectangle (rect 16 16 104 64))
	)
)
(symbol
	(rect -56 776 8 824)
	(text "OR2" (rect 1 0 19 10)(font "Arial" (font_size 6)))
	(text "inst21" (rect 3 37 31 54)(font "Intel Clear" ))
	(port
		(pt 0 32)
		(input)
		(text "IN2" (rect 2 23 19 35)(font "Courier New" (bold))(invisible))
		(text "IN2" (rect 2 23 19 35)(font "Courier New" (bold))(invisible))
		(line (pt 0 32)(pt 15 32))
	)
	(port
		(pt 0 16)
		(input)
		(text "IN1" (rect 2 7 19 19)(font "Courier New" (bold))(invisible))
		(text "IN1" (rect 2 7 19 19)(font "Courier New" (bold))(invisible))
		(line (pt 0 16)(pt 15 16))
	)
	(port
		(pt 64 24)
		(output)
		(text "OUT" (rect 48 15 65 27)(font "Courier New" (bold))(invisible))
		(text "OUT" (rect 48 15 65 27)(font "Courier New" (bold))(invisible))
		(line (pt 48 24)(pt 64 24))
	)
	(drawing
		(line (pt 14 36)(pt 25 36))
		(line (pt 14 13)(pt 25 13))
		(arc (pt 7 29)(pt 7 19)(rect -14 8 19 41))
		(arc (pt 49 24)(pt 25 13)(rect -6 13 57 76))
		(arc (pt 25 35)(pt 49 24)(rect -6 -27 57 36))
	)
)
(symbol
	(rect -72 672 -8 720)
	(text "OR2" (rect 1 0 19 10)(font "Arial" (font_size 6)))
	(text "inst22" (rect 3 37 31 54)(font "Intel Clear" ))
	(port
		(pt 0 32)
		(input)
		(text "IN2" (rect 2 23 19 35)(font "Courier New" (bold))(invisible))
		(text "IN2" (rect 2 23 19 35)(font "Courier New" (bold))(invisible))
		(line (pt 0 32)(pt 15 32))
	)
	(port
		(pt 0 16)
		(input)
		(text "IN1" (rect 2 7 19 19)(font "Courier New" (bold))(invisible))
		(text "IN1" (rect 2 7 19 19)(font "Courier New" (bold))(invisible))
		(line (pt 0 16)(pt 15 16))
	)
	(port
		(pt 64 24)
		(output)
		(text "OUT" (rect 48 15 65 27)(font "Courier New" (bold))(invisible))
		(text "OUT" (rect 48 15 65 27)(font "Courier New" (bold))(invisible))
		(line (pt 48 24)(pt 64 24))
	)
	(drawing
		(line (pt 14 36)(pt 25 36))
		(line (pt 14 13)(pt 25 13))
		(arc (pt 7 29)(pt 7 19)(rect -14 8 19 41))
		(arc (pt 49 24)(pt 25 13)(rect -6 13 57 76))
		(arc (pt 25 35)(pt 49 24)(rect -6 -27 57 36))
	)
)
(symbol
	(rect -104 568 -40 616)
	(text "OR2" (rect 1 0 19 10)(font "Arial" (font_size 6)))
	(text "inst23" (rect 3 37 31 54)(font "Intel Clear" ))
	(port
		(pt 0 32)
		(input)
		(text "IN2" (rect 2 23 19 35)(font "Courier New" (bold))(invisible))
		(text "IN2" (rect 2 23 19 35)(font "Courier New" (bold))(invisible))
		(line (pt 0 32)(pt 15 32))
	)
	(port
		(pt 0 16)
		(input)
		(text "IN1" (rect 2 7 19 19)(font "Courier New" (bold))(invisible))
		(text "IN1" (rect 2 7 19 19)(font "Courier New" (bold))(invisible))
		(line (pt 0 16)(pt 15 16))
	)
	(port
		(pt 64 24)
		(output)
		(text "OUT" (rect 48 15 65 27)(font "Courier New" (bold))(invisible))
		(text "OUT" (rect 48 15 65 27)(font "Courier New" (bold))(invisible))
		(line (pt 48 24)(pt 64 24))
	)
	(drawing
		(line (pt 14 36)(pt 25 36))
		(line (pt 14 13)(pt 25 13))
		(arc (pt 7 29)(pt 7 19)(rect -14 8 19 41))
		(arc (pt 49 24)(pt 25 13)(rect -6 13 57 76))
		(arc (pt 25 35)(pt 49 24)(rect -6 -27 57 36))
	)
)
(symbol
	(rect 424 720 568 800)
	(text "comparator" (rect 5 0 60 12)(font "Arial" ))
	(text "inst16" (rect 8 64 36 81)(font "Intel Clear" ))
	(port
		(pt 0 32)
		(input)
		(text "a[N-1..0]" (rect 0 0 43 12)(font "Arial" ))
		(text "a[N-1..0]" (rect 21 27 64 39)(font "Arial" ))
		(line (pt 0 32)(pt 16 32)(line_width 3))
	)
	(port
		(pt 144 32)
		(output)
		(text "altb" (rect 0 0 17 12)(font "Arial" ))
		(text "altb" (rect 109 27 126 39)(font "Arial" ))
		(line (pt 144 32)(pt 128 32))
	)
	(parameter
		"N"
		"4"
		""
		(type "PARAMETER_UNSIGNED_DEC")	)
	(parameter
		"M"
		"12"
		""
		(type "PARAMETER_UNSIGNED_DEC")	)
	(drawing
		(rectangle (rect 16 16 128 64))
	)
	(annotation_block (parameter)(rect 568 656 750 713))
)
(symbol
	(rect 424 616 568 696)
	(text "comparator" (rect 5 0 60 12)(font "Arial" ))
	(text "inst15" (rect 8 64 36 81)(font "Intel Clear" ))
	(port
		(pt 0 32)
		(input)
		(text "a[N-1..0]" (rect 0 0 43 12)(font "Arial" ))
		(text "a[N-1..0]" (rect 21 27 64 39)(font "Arial" ))
		(line (pt 0 32)(pt 16 32)(line_width 3))
	)
	(port
		(pt 144 32)
		(output)
		(text "altb" (rect 0 0 17 12)(font "Arial" ))
		(text "altb" (rect 109 27 126 39)(font "Arial" ))
		(line (pt 144 32)(pt 128 32))
	)
	(parameter
		"N"
		"7"
		""
		(type "PARAMETER_UNSIGNED_DEC")	)
	(parameter
		"M"
		"60"
		""
		(type "PARAMETER_UNSIGNED_DEC")	)
	(drawing
		(rectangle (rect 16 16 128 64))
	)
	(annotation_block (parameter)(rect 568 552 750 609))
)
(symbol
	(rect 424 504 568 584)
	(text "comparator" (rect 5 0 60 12)(font "Arial" ))
	(text "inst14" (rect 8 64 36 81)(font "Intel Clear" ))
	(port
		(pt 0 32)
		(input)
		(text "a[N-1..0]" (rect 0 0 43 12)(font "Arial" ))
		(text "a[N-1..0]" (rect 21 27 64 39)(font "Arial" ))
		(line (pt 0 32)(pt 16 32)(line_width 3))
	)
	(port
		(pt 144 32)
		(output)
		(text "altb" (rect 0 0 17 12)(font "Arial" ))
		(text "altb" (rect 109 27 126 39)(font "Arial" ))
		(line (pt 144 32)(pt 128 32))
	)
	(parameter
		"N"
		"7"
		""
		(type "PARAMETER_UNSIGNED_DEC")	)
	(parameter
		"M"
		"60"
		""
		(type "PARAMETER_UNSIGNED_DEC")	)
	(drawing
		(rectangle (rect 16 16 128 64))
	)
	(annotation_block (parameter)(rect 568 440 750 497))
)
(symbol
	(rect 40 512 192 592)
	(text "NCounter" (rect 5 0 52 12)(font "Arial" ))
	(text "inst10" (rect 8 64 36 81)(font "Intel Clear" ))
	(port
		(pt 0 32)
		(input)
		(text "clk" (rect 0 0 14 12)(font "Arial" ))
		(text "clk" (rect 21 27 35 39)(font "Arial" ))
		(line (pt 0 32)(pt 16 32))
	)
	(port
		(pt 0 48)
		(input)
		(text "reset" (rect 0 0 24 12)(font "Arial" ))
		(text "reset" (rect 21 43 45 55)(font "Arial" ))
		(line (pt 0 48)(pt 16 48))
	)
	(port
		(pt 152 32)
		(output)
		(text "q[N-1..0]" (rect 0 0 43 12)(font "Arial" ))
		(text "q[N-1..0]" (rect 95 27 138 39)(font "Arial" ))
		(line (pt 152 32)(pt 136 32)(line_width 3))
	)
	(parameter
		"N"
		"7"
		""
		(type "PARAMETER_UNSIGNED_DEC")	)
	(drawing
		(rectangle (rect 16 16 136 64))
	)
	(annotation_block (parameter)(rect 192 472 374 510))
)
(symbol
	(rect 40 616 192 696)
	(text "NCounter" (rect 5 0 52 12)(font "Arial" ))
	(text "inst11" (rect 8 64 36 81)(font "Intel Clear" ))
	(port
		(pt 0 32)
		(input)
		(text "clk" (rect 0 0 14 12)(font "Arial" ))
		(text "clk" (rect 21 27 35 39)(font "Arial" ))
		(line (pt 0 32)(pt 16 32))
	)
	(port
		(pt 0 48)
		(input)
		(text "reset" (rect 0 0 24 12)(font "Arial" ))
		(text "reset" (rect 21 43 45 55)(font "Arial" ))
		(line (pt 0 48)(pt 16 48))
	)
	(port
		(pt 152 32)
		(output)
		(text "q[N-1..0]" (rect 0 0 43 12)(font "Arial" ))
		(text "q[N-1..0]" (rect 95 27 138 39)(font "Arial" ))
		(line (pt 152 32)(pt 136 32)(line_width 3))
	)
	(parameter
		"N"
		"7"
		""
		(type "PARAMETER_UNSIGNED_DEC")	)
	(drawing
		(rectangle (rect 16 16 136 64))
	)
	(annotation_block (parameter)(rect 192 576 374 614))
)
(symbol
	(rect 40 728 192 808)
	(text "NCounter" (rect 5 0 52 12)(font "Arial" ))
	(text "inst12" (rect 8 64 36 81)(font "Intel Clear" ))
	(port
		(pt 0 32)
		(input)
		(text "clk" (rect 0 0 14 12)(font "Arial" ))
		(text "clk" (rect 21 27 35 39)(font "Arial" ))
		(line (pt 0 32)(pt 16 32))
	)
	(port
		(pt 0 48)
		(input)
		(text "reset" (rect 0 0 24 12)(font "Arial" ))
		(text "reset" (rect 21 43 45 55)(font "Arial" ))
		(line (pt 0 48)(pt 16 48))
	)
	(port
		(pt 152 32)
		(output)
		(text "q[N-1..0]" (rect 0 0 43 12)(font "Arial" ))
		(text "q[N-1..0]" (rect 95 27 138 39)(font "Arial" ))
		(line (pt 152 32)(pt 136 32)(line_width 3))
	)
	(parameter
		"N"
		"4"
		""
		(type "PARAMETER_UNSIGNED_DEC")	)
	(drawing
		(rectangle (rect 16 16 136 64))
	)
	(annotation_block (parameter)(rect 192 688 374 726))
)
(symbol
	(rect 328 -56 504 24)
	(text "parser" (rect 5 0 35 12)(font "Arial" ))
	(text "inst19" (rect 8 64 36 81)(font "Intel Clear" ))
	(port
		(pt 0 32)
		(input)
		(text "a[N-1..0]" (rect 0 0 43 12)(font "Arial" ))
		(text "a[N-1..0]" (rect 21 27 64 39)(font "Arial" ))
		(line (pt 0 32)(pt 16 32)(line_width 3))
	)
	(port
		(pt 176 32)
		(output)
		(text "ones[3..0]" (rect 0 0 49 12)(font "Arial" ))
		(text "ones[3..0]" (rect 114 27 163 39)(font "Arial" ))
		(line (pt 176 32)(pt 160 32)(line_width 3))
	)
	(port
		(pt 176 48)
		(output)
		(text "tens[3..0]" (rect 0 0 47 12)(font "Arial" ))
		(text "tens[3..0]" (rect 116 43 163 55)(font "Arial" ))
		(line (pt 176 48)(pt 160 48)(line_width 3))
	)
	(parameter
		"N"
		"7"
		""
		(type "PARAMETER_UNSIGNED_DEC")	)
	(drawing
		(rectangle (rect 16 16 160 64))
	)
	(annotation_block (parameter)(rect 504 -96 686 -58))
)
(symbol
	(rect 288 -248 464 -168)
	(text "parser" (rect 5 0 35 12)(font "Arial" ))
	(text "inst18" (rect 8 64 36 81)(font "Intel Clear" ))
	(port
		(pt 0 32)
		(input)
		(text "a[N-1..0]" (rect 0 0 43 12)(font "Arial" ))
		(text "a[N-1..0]" (rect 21 27 64 39)(font "Arial" ))
		(line (pt 0 32)(pt 16 32)(line_width 3))
	)
	(port
		(pt 176 32)
		(output)
		(text "ones[3..0]" (rect 0 0 49 12)(font "Arial" ))
		(text "ones[3..0]" (rect 114 27 163 39)(font "Arial" ))
		(line (pt 176 32)(pt 160 32)(line_width 3))
	)
	(port
		(pt 176 48)
		(output)
		(text "tens[3..0]" (rect 0 0 47 12)(font "Arial" ))
		(text "tens[3..0]" (rect 116 43 163 55)(font "Arial" ))
		(line (pt 176 48)(pt 160 48)(line_width 3))
	)
	(parameter
		"N"
		"7"
		""
		(type "PARAMETER_UNSIGNED_DEC")	)
	(drawing
		(rectangle (rect 16 16 160 64))
	)
	(annotation_block (parameter)(rect 464 -288 646 -250))
)
(symbol
	(rect -416 296 -264 376)
	(text "NCounter" (rect 5 0 52 12)(font "Arial" ))
	(text "inst17" (rect 8 64 36 81)(font "Intel Clear" ))
	(port
		(pt 0 32)
		(input)
		(text "clk" (rect 0 0 14 12)(font "Arial" ))
		(text "clk" (rect 21 27 35 39)(font "Arial" ))
		(line (pt 0 32)(pt 16 32))
	)
	(port
		(pt 0 48)
		(input)
		(text "reset" (rect 0 0 24 12)(font "Arial" ))
		(text "reset" (rect 21 43 45 55)(font "Arial" ))
		(line (pt 0 48)(pt 16 48))
	)
	(port
		(pt 152 32)
		(output)
		(text "q[N-1..0]" (rect 0 0 43 12)(font "Arial" ))
		(text "q[N-1..0]" (rect 95 27 138 39)(font "Arial" ))
		(line (pt 152 32)(pt 136 32)(line_width 3))
	)
	(parameter
		"N"
		"25"
		""
		(type "PARAMETER_UNSIGNED_DEC")	)
	(drawing
		(rectangle (rect 16 16 136 64))
	)
	(annotation_block (parameter)(rect -264 256 -82 294))
)
(symbol
	(rect 640 520 688 552)
	(text "NOT" (rect 1 0 21 10)(font "Arial" (font_size 6)))
	(text "inst24" (rect 3 21 31 38)(font "Intel Clear" ))
	(port
		(pt 0 16)
		(input)
		(text "IN" (rect 2 7 13 19)(font "Courier New" (bold))(invisible))
		(text "IN" (rect 2 7 13 19)(font "Courier New" (bold))(invisible))
		(line (pt 0 16)(pt 13 16))
	)
	(port
		(pt 48 16)
		(output)
		(text "OUT" (rect 32 7 49 19)(font "Courier New" (bold))(invisible))
		(text "OUT" (rect 32 7 49 19)(font "Courier New" (bold))(invisible))
		(line (pt 39 16)(pt 48 16))
	)
	(drawing
		(line (pt 13 25)(pt 13 7))
		(line (pt 13 7)(pt 31 16))
		(line (pt 13 25)(pt 31 16))
		(circle (rect 31 12 39 20))
	)
)
(symbol
	(rect 616 632 664 664)
	(text "NOT" (rect 1 0 21 10)(font "Arial" (font_size 6)))
	(text "inst25" (rect 3 21 31 38)(font "Intel Clear" ))
	(port
		(pt 0 16)
		(input)
		(text "IN" (rect 2 7 13 19)(font "Courier New" (bold))(invisible))
		(text "IN" (rect 2 7 13 19)(font "Courier New" (bold))(invisible))
		(line (pt 0 16)(pt 13 16))
	)
	(port
		(pt 48 16)
		(output)
		(text "OUT" (rect 32 7 49 19)(font "Courier New" (bold))(invisible))
		(text "OUT" (rect 32 7 49 19)(font "Courier New" (bold))(invisible))
		(line (pt 39 16)(pt 48 16))
	)
	(drawing
		(line (pt 13 25)(pt 13 7))
		(line (pt 13 7)(pt 31 16))
		(line (pt 13 25)(pt 31 16))
		(circle (rect 31 12 39 20))
	)
)
(symbol
	(rect 624 736 672 768)
	(text "NOT" (rect 1 0 21 10)(font "Arial" (font_size 6)))
	(text "inst26" (rect 3 21 31 38)(font "Intel Clear" ))
	(port
		(pt 0 16)
		(input)
		(text "IN" (rect 2 7 13 19)(font "Courier New" (bold))(invisible))
		(text "IN" (rect 2 7 13 19)(font "Courier New" (bold))(invisible))
		(line (pt 0 16)(pt 13 16))
	)
	(port
		(pt 48 16)
		(output)
		(text "OUT" (rect 32 7 49 19)(font "Courier New" (bold))(invisible))
		(text "OUT" (rect 32 7 49 19)(font "Courier New" (bold))(invisible))
		(line (pt 39 16)(pt 48 16))
	)
	(drawing
		(line (pt 13 25)(pt 13 7))
		(line (pt 13 7)(pt 31 16))
		(line (pt 13 25)(pt 31 16))
		(circle (rect 31 12 39 20))
	)
)
(symbol
	(rect -528 456 -480 488)
	(text "NOT" (rect 1 0 21 10)(font "Arial" (font_size 6)))
	(text "inst28" (rect 3 21 31 38)(font "Intel Clear" ))
	(port
		(pt 0 16)
		(input)
		(text "IN" (rect 2 7 13 19)(font "Courier New" (bold))(invisible))
		(text "IN" (rect 2 7 13 19)(font "Courier New" (bold))(invisible))
		(line (pt 0 16)(pt 13 16))
	)
	(port
		(pt 48 16)
		(output)
		(text "OUT" (rect 32 7 49 19)(font "Courier New" (bold))(invisible))
		(text "OUT" (rect 32 7 49 19)(font "Courier New" (bold))(invisible))
		(line (pt 39 16)(pt 48 16))
	)
	(drawing
		(line (pt 13 25)(pt 13 7))
		(line (pt 13 7)(pt 31 16))
		(line (pt 13 25)(pt 31 16))
		(circle (rect 31 12 39 20))
	)
)
(symbol
	(rect 384 112 560 192)
	(text "parser_mod" (rect 5 0 62 12)(font "Arial" ))
	(text "inst30" (rect 8 64 36 81)(font "Intel Clear" ))
	(port
		(pt 0 32)
		(input)
		(text "a[N-1..0]" (rect 0 0 43 12)(font "Arial" ))
		(text "a[N-1..0]" (rect 21 27 64 39)(font "Arial" ))
		(line (pt 0 32)(pt 16 32)(line_width 3))
	)
	(port
		(pt 176 32)
		(output)
		(text "ones[3..0]" (rect 0 0 49 12)(font "Arial" ))
		(text "ones[3..0]" (rect 114 27 163 39)(font "Arial" ))
		(line (pt 176 32)(pt 160 32)(line_width 3))
	)
	(port
		(pt 176 48)
		(output)
		(text "tens[3..0]" (rect 0 0 47 12)(font "Arial" ))
		(text "tens[3..0]" (rect 116 43 163 55)(font "Arial" ))
		(line (pt 176 48)(pt 160 48)(line_width 3))
	)
	(parameter
		"N"
		"4"
		""
		(type "PARAMETER_UNSIGNED_DEC")	)
	(drawing
		(rectangle (rect 16 16 160 64))
	)
	(annotation_block (parameter)(rect 560 72 742 110))
)
(connector
	(pt 920 -40)
	(pt 1008 -40)
	(bus)
)
(connector
	(pt 920 144)
	(pt 1016 144)
	(bus)
)
(connector
	(pt 920 224)
	(pt 1016 224)
	(bus)
)
(connector
	(pt 920 -224)
	(pt 1000 -224)
	(bus)
)
(connector
	(pt 920 -144)
	(pt 1008 -144)
	(bus)
)
(connector
	(pt 192 544)
	(pt 192 536)
	(bus)
)
(connector
	(pt 424 760)
	(pt 424 752)
	(bus)
)
(connector
	(pt 720 -40)
	(pt 720 -24)
	(bus)
)
(connector
	(pt 504 -24)
	(pt 720 -24)
	(bus)
)
(connector
	(pt 720 -216)
	(pt 464 -216)
	(bus)
)
(connector
	(pt 720 -224)
	(pt 720 -216)
	(bus)
)
(connector
	(pt 720 -200)
	(pt 464 -200)
	(bus)
)
(connector
	(pt 720 -144)
	(pt 720 -200)
	(bus)
)
(connector
	(pt 272 -216)
	(pt 288 -216)
	(bus)
)
(connector
	(pt 808 536)
	(pt 808 528)
)
(connector
	(pt 808 648)
	(pt 808 640)
)
(connector
	(text "CLK" (rect 762 496 782 513)(font "Intel Clear" ))
	(pt 808 512)
	(pt 752 512)
)
(connector
	(text "CLK" (rect 770 608 790 625)(font "Intel Clear" ))
	(pt 808 624)
	(pt 760 624)
)
(connector
	(text "CLK" (rect 778 704 798 721)(font "Intel Clear" ))
	(pt 808 720)
	(pt 768 720)
)
(connector
	(pt 928 720)
	(pt 952 720)
)
(connector
	(pt 928 624)
	(pt 992 624)
)
(connector
	(pt 928 512)
	(pt 1032 512)
)
(connector
	(pt -112 600)
	(pt -104 600)
)
(connector
	(pt 40 592)
	(pt -40 592)
)
(connector
	(pt 40 560)
	(pt 40 592)
)
(connector
	(pt 40 696)
	(pt -8 696)
)
(connector
	(pt 40 664)
	(pt 40 696)
)
(connector
	(pt 40 776)
	(pt 16 776)
)
(connector
	(pt 16 776)
	(pt 16 800)
)
(connector
	(pt 16 800)
	(pt 8 800)
)
(connector
	(pt 952 720)
	(pt 952 824)
)
(connector
	(pt 952 824)
	(pt -56 824)
)
(connector
	(pt -56 808)
	(pt -56 824)
)
(connector
	(pt 992 624)
	(pt 992 840)
)
(connector
	(pt 1032 512)
	(pt 1032 856)
)
(connector
	(pt -112 600)
	(pt -112 648)
)
(connector
	(pt 1032 856)
	(pt -152 856)
)
(connector
	(pt -152 648)
	(pt -152 856)
)
(connector
	(pt -152 648)
	(pt -112 648)
)
(connector
	(pt -112 648)
	(pt 40 648)
)
(connector
	(pt -72 704)
	(pt -136 704)
)
(connector
	(pt 992 840)
	(pt -136 840)
)
(connector
	(pt -488 320)
	(pt -416 320)
)
(connector
	(pt -416 320)
	(pt -416 328)
)
(connector
	(text "Clk_div[24..0]" (rect -262 312 -196 329)(font "Intel Clear" ))
	(pt -264 328)
	(pt -184 328)
	(bus)
)
(connector
	(pt 272 -216)
	(pt 272 536)
	(bus)
)
(connector
	(pt 192 536)
	(pt 272 536)
	(bus)
)
(connector
	(pt 272 536)
	(pt 424 536)
	(bus)
)
(connector
	(pt 328 -24)
	(pt 328 648)
	(bus)
)
(connector
	(pt 192 648)
	(pt 328 648)
	(bus)
)
(connector
	(pt 328 648)
	(pt 424 648)
	(bus)
)
(connector
	(pt 568 648)
	(pt 616 648)
)
(connector
	(pt 568 752)
	(pt 624 752)
)
(connector
	(pt 808 736)
	(pt 808 752)
)
(connector
	(pt 568 536)
	(pt 640 536)
)
(connector
	(pt 672 752)
	(pt 808 752)
)
(connector
	(pt 664 648)
	(pt 808 648)
)
(connector
	(pt 680 536)
	(pt 688 536)
)
(connector
	(pt 688 536)
	(pt 808 536)
)
(connector
	(pt -416 344)
	(pt -416 384)
)
(connector
	(pt -576 472)
	(pt -528 472)
)
(connector
	(text "R" (rect -478 456 -471 473)(font "Intel Clear" ))
	(pt -480 472)
	(pt -432 472)
)
(connector
	(text "R" (rect -430 368 -423 385)(font "Intel Clear" ))
	(pt -432 384)
	(pt -416 384)
)
(connector
	(text "R" (rect -166 568 -159 585)(font "Intel Clear" ))
	(pt -104 584)
	(pt -168 584)
)
(connector
	(text "R" (rect -134 672 -127 689)(font "Intel Clear" ))
	(pt -72 688)
	(pt -136 688)
)
(connector
	(text "R" (rect -126 776 -119 793)(font "Intel Clear" ))
	(pt -56 792)
	(pt -128 792)
)
(connector
	(pt 928 40)
	(pt 928 48)
	(bus)
)
(connector
	(pt 1008 40)
	(pt 928 40)
	(bus)
)
(connector
	(pt 928 48)
	(pt 920 48)
	(bus)
)
(connector
	(pt 504 -8)
	(pt 704 -8)
	(bus)
)
(connector
	(pt 720 48)
	(pt 704 48)
	(bus)
)
(connector
	(pt 704 48)
	(pt 704 -8)
	(bus)
)
(connector
	(pt 384 760)
	(pt 384 144)
	(bus)
)
(connector
	(pt 192 760)
	(pt 384 760)
	(bus)
)
(connector
	(pt 384 760)
	(pt 424 760)
	(bus)
)
(connector
	(pt 40 760)
	(pt -136 760)
)
(connector
	(pt -136 704)
	(pt -136 760)
)
(connector
	(pt -136 760)
	(pt -136 840)
)
(connector
	(pt 560 224)
	(pt 560 160)
	(bus)
)
(connector
	(pt 728 224)
	(pt 720 224)
	(bus)
)
(connector
	(pt 720 224)
	(pt 560 224)
	(bus)
)
(connector
	(pt 560 144)
	(pt 720 144)
	(bus)
)
(connector
	(pt 720 144)
	(pt 728 144)
	(bus)
)
(connector
	(text "Clk_div[23]" (rect -14 528 41 545)(font "Intel Clear" ))
	(pt 40 544)
	(pt -16 544)
)
(junction (pt -112 648))
(junction (pt 272 536))
(junction (pt 328 648))
(junction (pt 688 536))
(junction (pt 384 760))
(junction (pt -136 760))
(junction (pt 720 224))
(junction (pt 720 144))
